ALU2Circuit/simulation/qsim/Circuit2.msim.vcd
$comment
	File created using the following command:
		vcd file Circuit2.msim.vcd -direction
$end
$date
	Thu Nov 28 06:49:56 2024
$end
$version
	ModelSim Version 10.1d
$end
$timescale
	1ps
$end
$scope module Circuit2_vlg_vec_tst $end
$var reg 8 ! A [7:0] $end
$var reg 1 " A_Reset $end
$var reg 8 # B [7:0] $end
$var reg 1 $ B_Reset $end
$var reg 1 % Clock $end
$var reg 1 & data_inFSM $end
$var reg 1 ' Enable_Decoder $end
$var reg 1 ( ResetFSM $end
$var wire 1 ) R_First_Four_Display [0] $end
$var wire 1 * R_First_Four_Display [1] $end
$var wire 1 + R_First_Four_Display [2] $end
$var wire 1 , R_First_Four_Display [3] $end
$var wire 1 - R_First_Four_Display [4] $end
$var wire 1 . R_First_Four_Display [5] $end
$var wire 1 / R_First_Four_Display [6] $end
$var wire 1 0 R_Last_Four_Display [0] $end
$var wire 1 1 R_Last_Four_Display [1] $end
$var wire 1 2 R_Last_Four_Display [2] $end
$var wire 1 3 R_Last_Four_Display [3] $end
$var wire 1 4 R_Last_Four_Display [4] $end
$var wire 1 5 R_Last_Four_Display [5] $end
$var wire 1 6 R_Last_Four_Display [6] $end
$var wire 1 7 R_Last_Four_Negative [0] $end
$var wire 1 8 R_Last_Four_Negative [1] $end
$var wire 1 9 R_Last_Four_Negative [2] $end
$var wire 1 : R_Last_Four_Negative [3] $end
$var wire 1 ; R_Last_Four_Negative [4] $end
$var wire 1 < R_Last_Four_Negative [5] $end
$var wire 1 = R_Last_Four_Negative [6] $end
$var wire 1 > StudentID_Display [0] $end
$var wire 1 ? StudentID_Display [1] $end
$var wire 1 @ StudentID_Display [2] $end
$var wire 1 A StudentID_Display [3] $end
$var wire 1 B StudentID_Display [4] $end
$var wire 1 C StudentID_Display [5] $end
$var wire 1 D StudentID_Display [6] $end
$var wire 1 E sampler $end
$scope module i1 $end
$var wire 1 F gnd $end
$var wire 1 G vcc $end
$var wire 1 H unknown $end
$var tri1 1 I devclrn $end
$var tri1 1 J devpor $end
$var tri1 1 K devoe $end
$var wire 1 L inst1|Add1~0_combout $end
$var wire 1 M inst1|Add1~6_combout $end
$var wire 1 N inst1|Add1~10_combout $end
$var wire 1 O inst1|Add0~9 $end
$var wire 1 P inst1|Add0~10_combout $end
$var wire 1 Q inst1|Add0~11 $end
$var wire 1 R inst1|Add0~12_combout $end
$var wire 1 S inst2|yfsm.s2~regout $end
$var wire 1 T inst1|Result~17_combout $end
$var wire 1 U inst1|Selector3~0_combout $end
$var wire 1 V inst2|Selector2~0_combout $end
$var wire 1 W Clock~combout $end
$var wire 1 X Clock~clkctrl_outclk $end
$var wire 1 Y data_inFSM~combout $end
$var wire 1 Z inst2|Selector3~0_combout $end
$var wire 1 [ ResetFSM~combout $end
$var wire 1 \ ResetFSM~clkctrl_outclk $end
$var wire 1 ] inst2|yfsm.s3~regout $end
$var wire 1 ^ inst2|Selector6~0_combout $end
$var wire 1 _ inst2|yfsm.s6~regout $end
$var wire 1 ` inst2|Selector7~0_combout $end
$var wire 1 a inst2|yfsm.s7~regout $end
$var wire 1 b inst2|WideOr1~combout $end
$var wire 1 c inst1|Result[3]~12_combout $end
$var wire 1 d inst2|Selector4~0_combout $end
$var wire 1 e inst2|yfsm.s4~regout $end
$var wire 1 f inst2|Selector5~0_combout $end
$var wire 1 g inst2|yfsm.s5~regout $end
$var wire 1 h inst2|Selector8~0_combout $end
$var wire 1 i inst2|yfsm.s8~regout $end
$var wire 1 j inst2|Selector0~0_combout $end
$var wire 1 k inst2|yfsm.s0~regout $end
$var wire 1 l inst2|Selector1~0_combout $end
$var wire 1 m inst2|yfsm.s1~regout $end
$var wire 1 n inst2|WideOr2~0_combout $end
$var wire 1 o inst1|Result[3]~10_combout $end
$var wire 1 p A_Reset~combout $end
$var wire 1 q A_Reset~clkctrl_outclk $end
$var wire 1 r inst1|Add0~0_combout $end
$var wire 1 s B_Reset~combout $end
$var wire 1 t B_Reset~clkctrl_outclk $end
$var wire 1 u inst1|LessThan0~1_cout $end
$var wire 1 v inst1|LessThan0~3_cout $end
$var wire 1 w inst1|LessThan0~5_cout $end
$var wire 1 x inst1|LessThan0~7_cout $end
$var wire 1 y inst1|LessThan0~9_cout $end
$var wire 1 z inst1|LessThan0~11_cout $end
$var wire 1 { inst1|LessThan0~13_cout $end
$var wire 1 | inst1|LessThan0~14_combout $end
$var wire 1 } inst1|Result[3]~11_combout $end
$var wire 1 ~ inst1|Selector7~0_combout $end
$var wire 1 !! inst1|Selector7~1_combout $end
$var wire 1 "! inst1|Result[1]~0_combout $end
$var wire 1 #! inst1|Result~13_combout $end
$var wire 1 $! inst1|Add1~1 $end
$var wire 1 %! inst1|Add1~2_combout $end
$var wire 1 &! inst1|Selector7~2_combout $end
$var wire 1 '! inst1|Selector7~3_combout $end
$var wire 1 (! inst2|WideOr0~combout $end
$var wire 1 )! Enable_Decoder~combout $end
$var wire 1 *! inst1|Result[0]~5_combout $end
$var wire 1 +! inst1|Add0~1 $end
$var wire 1 ,! inst1|Add0~3 $end
$var wire 1 -! inst1|Add0~4_combout $end
$var wire 1 .! inst1|Selector5~0_combout $end
$var wire 1 /! inst1|Selector5~1_combout $end
$var wire 1 0! inst1|Result[3]~2_combout $end
$var wire 1 1! inst1|Result~15_combout $end
$var wire 1 2! inst1|Selector5~2_combout $end
$var wire 1 3! inst1|Add1~3 $end
$var wire 1 4! inst1|Add1~4_combout $end
$var wire 1 5! inst1|Add2~1 $end
$var wire 1 6! inst1|Add2~2_combout $end
$var wire 1 7! inst1|Selector5~3_combout $end
$var wire 1 8! inst1|Add0~2_combout $end
$var wire 1 9! inst1|Selector6~0_combout $end
$var wire 1 :! inst1|Selector6~1_combout $end
$var wire 1 ;! inst1|Result[2]~1_combout $end
$var wire 1 <! inst1|Result~14_combout $end
$var wire 1 =! inst1|Selector6~2_combout $end
$var wire 1 >! inst1|Add2~0_combout $end
$var wire 1 ?! inst1|Selector6~3_combout $end
$var wire 1 @! inst1|Result[0]~6_combout $end
$var wire 1 A! inst1|Result[0]~7_combout $end
$var wire 1 B! inst1|Selector8~0_combout $end
$var wire 1 C! inst1|Result~8_combout $end
$var wire 1 D! inst1|Selector8~1_combout $end
$var wire 1 E! inst1|Result[0]~9_combout $end
$var wire 1 F! inst1|Result[0]~22_combout $end
$var wire 1 G! inst7|Mux0~0_combout $end
$var wire 1 H! inst7|Mux1~0_combout $end
$var wire 1 I! inst7|Mux2~0_combout $end
$var wire 1 J! inst7|Mux3~0_combout $end
$var wire 1 K! inst7|Mux4~0_combout $end
$var wire 1 L! inst7|Mux5~0_combout $end
$var wire 1 M! inst7|Mux6~0_combout $end
$var wire 1 N! inst1|Add0~5 $end
$var wire 1 O! inst1|Add0~6_combout $end
$var wire 1 P! inst1|Selector4~2_combout $end
$var wire 1 Q! inst1|Selector4~3_combout $end
$var wire 1 R! inst1|Result~16_combout $end
$var wire 1 S! inst1|Add1~5 $end
$var wire 1 T! inst1|Add1~7 $end
$var wire 1 U! inst1|Add1~8_combout $end
$var wire 1 V! inst1|Add2~3 $end
$var wire 1 W! inst1|Add2~4_combout $end
$var wire 1 X! inst1|Selector4~0_combout $end
$var wire 1 Y! inst1|Selector4~1_combout $end
$var wire 1 Z! inst1|Selector4~4_combout $end
$var wire 1 [! inst1|Result[7]~18_combout $end
$var wire 1 \! inst1|Result[7]~19_combout $end
$var wire 1 ]! inst1|Result[7]~20_combout $end
$var wire 1 ^! inst1|Add1~9 $end
$var wire 1 _! inst1|Add1~11 $end
$var wire 1 `! inst1|Add1~12_combout $end
$var wire 1 a! inst1|Add2~5 $end
$var wire 1 b! inst1|Add2~7 $end
$var wire 1 c! inst1|Add2~8_combout $end
$var wire 1 d! inst1|Selector2~2_combout $end
$var wire 1 e! inst1|Selector2~3_combout $end
$var wire 1 f! inst1|Selector2~4_combout $end
$var wire 1 g! inst1|Selector2~5_combout $end
$var wire 1 h! inst1|Selector2~6_combout $end
$var wire 1 i! inst1|Selector2~7_combout $end
$var wire 1 j! inst1|Result~21_combout $end
$var wire 1 k! inst1|Selector1~2_combout $end
$var wire 1 l! inst1|Add1~13 $end
$var wire 1 m! inst1|Add1~14_combout $end
$var wire 1 n! inst1|Add2~9 $end
$var wire 1 o! inst1|Add2~10_combout $end
$var wire 1 p! inst1|Selector1~3_combout $end
$var wire 1 q! inst1|Selector1~4_combout $end
$var wire 1 r! inst1|Selector1~5_combout $end
$var wire 1 s! inst1|Selector1~6_combout $end
$var wire 1 t! inst1|Add2~6_combout $end
$var wire 1 u! inst1|Selector3~1_combout $end
$var wire 1 v! inst1|Add0~7 $end
$var wire 1 w! inst1|Add0~8_combout $end
$var wire 1 x! inst1|Selector3~2_combout $end
$var wire 1 y! inst1|Selector3~3_combout $end
$var wire 1 z! inst1|Selector3~4_combout $end
$var wire 1 {! inst6|Mux0~0_combout $end
$var wire 1 |! inst6|Mux1~0_combout $end
$var wire 1 }! inst6|Mux2~0_combout $end
$var wire 1 ~! inst6|Mux3~0_combout $end
$var wire 1 !" inst6|Mux4~0_combout $end
$var wire 1 "" inst6|Mux5~0_combout $end
$var wire 1 #" inst6|Mux6~0_combout $end
$var wire 1 $" inst2|WideOr5~0_combout $end
$var wire 1 %" inst2|WideOr4~combout $end
$var wire 1 &" inst2|WideOr3~combout $end
$var wire 1 '" inst3|Mux0~0_combout $end
$var wire 1 (" inst3|Mux1~0_combout $end
$var wire 1 )" inst3|Mux2~0_combout $end
$var wire 1 *" inst3|Mux3~0_combout $end
$var wire 1 +" inst3|Mux4~0_combout $end
$var wire 1 ," inst3|Mux5~0_combout $end
$var wire 1 -" inst3|Mux6~0_combout $end
$var wire 1 ." inst5|Q [7] $end
$var wire 1 /" inst5|Q [6] $end
$var wire 1 0" inst5|Q [5] $end
$var wire 1 1" inst5|Q [4] $end
$var wire 1 2" inst5|Q [3] $end
$var wire 1 3" inst5|Q [2] $end
$var wire 1 4" inst5|Q [1] $end
$var wire 1 5" inst5|Q [0] $end
$var wire 1 6" inst1|Result [7] $end
$var wire 1 7" inst1|Result [6] $end
$var wire 1 8" inst1|Result [5] $end
$var wire 1 9" inst1|Result [4] $end
$var wire 1 :" inst1|Result [3] $end
$var wire 1 ;" inst1|Result [2] $end
$var wire 1 <" inst1|Result [1] $end
$var wire 1 =" inst1|Result [0] $end
$var wire 1 >" inst4|Q [7] $end
$var wire 1 ?" inst4|Q [6] $end
$var wire 1 @" inst4|Q [5] $end
$var wire 1 A" inst4|Q [4] $end
$var wire 1 B" inst4|Q [3] $end
$var wire 1 C" inst4|Q [2] $end
$var wire 1 D" inst4|Q [1] $end
$var wire 1 E" inst4|Q [0] $end
$var wire 1 F" B~combout [7] $end
$var wire 1 G" B~combout [6] $end
$var wire 1 H" B~combout [5] $end
$var wire 1 I" B~combout [4] $end
$var wire 1 J" B~combout [3] $end
$var wire 1 K" B~combout [2] $end
$var wire 1 L" B~combout [1] $end
$var wire 1 M" B~combout [0] $end
$var wire 1 N" A~combout [7] $end
$var wire 1 O" A~combout [6] $end
$var wire 1 P" A~combout [5] $end
$var wire 1 Q" A~combout [4] $end
$var wire 1 R" A~combout [3] $end
$var wire 1 S" A~combout [2] $end
$var wire 1 T" A~combout [1] $end
$var wire 1 U" A~combout [0] $end
$upscope $end
$upscope $end
$enddefinitions $end
#0
$dumpvars
b11110 !
0"
b100 #
0$
1%
1&
1'
0(
05"
04"
03"
02"
01"
00"
0/"
0."
0="
0<"
0;"
0:"
09"
08"
07"
06"
0E"
0D"
0C"
0B"
0A"
0@"
0?"
0>"
0M"
0L"
1K"
0J"
0I"
0H"
0G"
0F"
0U"
1T"
1S"
1R"
1Q"
0P"
0O"
0N"
1/
0.
0-
0,
0+
0*
0)
16
05
04
03
02
01
00
1=
1<
1;
1:
19
18
17
0D
0C
1B
0A
0@
1?
0>
xE
0F
1G
xH
1I
1J
1K
0L
0M
0N
0O
0P
1Q
0R
0S
0T
0U
0V
1W
1X
1Y
0Z
0[
0\
0]
0^
0_
0`
0a
1b
1c
0d
0e
0f
0g
0h
0i
1j
0k
1l
0m
0n
1o
0p
0q
1r
0s
0t
0u
1v
0w
1x
0y
1z
0{
0|
0}
0~
1!!
1"!
0#!
0$!
0%!
0&!
0'!
0(!
1)!
1*!
0+!
1,!
0-!
0.!
0/!
00!
01!
02!
13!
04!
05!
16!
07!
08!
09!
0:!
0;!
0<!
0=!
1>!
0?!
0@!
0A!
0B!
0C!
0D!
0E!
0F!
0G!
0H!
0I!
0J!
0K!
0L!
0M!
0N!
0O!
0P!
0Q!
0R!
0S!
1T!
0U!
1V!
1W!
0X!
0Y!
0Z!
0[!
1\!
0]!
0^!
1_!
0`!
0a!
1b!
1c!
0d!
0e!
0f!
0g!
0h!
0i!
0j!
0k!
0l!
0m!
0n!
1o!
0p!
0q!
0r!
0s!
1t!
0u!
1v!
0w!
0x!
0y!
0z!
0{!
0|!
0}!
0~!
0!"
0""
0#"
1$"
0%"
1&"
0'"
1("
0)"
0*"
1+"
0,"
0-"
$end
#5000
0%
0W
0X
0E
#10000
1%
1W
1X
1E
1A"
1C"
1<"
13"
1B"
1D"
1m
1k
1U!
1R!
1O!
1=!
1@!
1S!
18!
1M!
1L!
1I!
11!
1-!
1'!
1M
1k!
1%!
1#!
1+!
0r
1n
0l
1V
0&"
0$"
1a!
0W!
1X!
1P!
0T!
0M
19!
12!
1/!
0V!
06!
1&!
0,!
08!
0!!
1u!
0\!
1[!
1B!
0@!
17!
1}
1U
1-"
0+"
0("
1.
1+
0/
0b!
0t!
1Q!
1^!
0U!
1V!
16!
07!
10!
1W!
0'!
1N!
0-!
0"!
1q!
1g!
1D!
0P!
1.!
1~
1D
0B
0?
1n!
0c!
1Z!
1N
0a!
0v!
0O!
0/!
1E!
0Q!
0o!
1w!
00!
1F!
0Z!
#15000
0%
0W
0X
0E
#20000
1%
1W
1X
1E
1="
0<"
0m
1S
0M!
1K!
1J!
0I!
1G!
0n
0V
1$"
0b
1Z
1p!
0k!
0[!
1?!
0=!
17!
0}
0c
0U
1,"
1+"
1*"
1'"
1Y!
1'!
1-
1,
0+
1)
1/
0p!
1r!
1h!
0?!
1x!
1P!
1:!
09!
0.!
0~
0u!
1C
1B
1A
1>
1s!
1i!
1y!
1Q!
0:!
1z!
1Z!
#30000
0%
0W
0X
0E
#40000
1%
1W
1X
1E
18"
16"
17"
19"
1]
0S
1#"
1~!
1}!
1|!
1%"
1n
1d
0Z
0$"
0-"
0+"
0*"
1)"
0'"
1[!
0B!
1?!
07!
02!
0o
1c
13
12
11
06
0r!
0h!
0D!
17!
0y!
0Q!
19!
0D
0B
0A
1@
0>
0s!
0i!
0E!
0z!
0Z!
1:!
0F!
1;!
#50000
0%
0W
0X
0E
#60000
1%
1W
1X
1E
08"
06"
07"
09"
0="
1;"
1e
0]
0#"
0~!
0}!
0|!
1M!
0L!
1&"
1(!
1f
0d
0n
1b
0,"
0)"
1("
1]!
1\!
0[!
1Z!
1k!
0X!
1@!
0?!
1=!
07!
0&!
1o
0Y!
0P!
0'!
03
02
01
0.
16
0/
0q!
0g!
1r!
1h!
1p!
1A!
1?!
1'!
1y!
09!
0Z!
0C
0@
1?
0r!
0h!
1s!
1i!
1q!
1E!
0:!
0s!
0i!
1r!
1F!
0;!
1s!
#70000
0%
0W
0X
0E
#80000
1%
1W
1X
1E
16"
1="
1<"
1g
0e
1#"
0M!
1L!
0G!
1$"
1n
0f
1^
0&"
1,"
1+"
0("
0p!
1X!
1B!
0@!
0?!
17!
12!
1&!
1}
1U
1.
0)
06
1/
0q!
1D!
0A!
07!
0'!
0x!
1:!
19!
1.!
1~
1u!
1C
1B
0?
0r!
0E!
0y!
1;!
0:!
1z!
0s!
0F!
0;!
#90000
0%
0W
0X
0E
#100000
1%
1W
1X
1E
18"
06"
0="
0;"
0<"
0g
1_
1""
1}!
0L!
0K!
0J!
0%"
0$"
0n
0^
0b
1`
1-"
0,"
0+"
1p!
0k!
1?!
0=!
17!
0}
0c
0U
1Y!
1'!
15
12
0.
0-
0,
1q!
0p!
0?!
1x!
1P!
1:!
09!
0.!
0~
0u!
1Z!
1D
0C
0B
1r!
0q!
1y!
1Q!
0:!
0z!
1s!
0r!
0s!
#110000
0%
0W
0X
0E
#120000
1%
1W
1X
1E
08"
19"
1:"
1<"
1a
0_
0#"
1!"
1~!
0}!
1{!
1M!
1J!
1n
1h
0`
0B!
1?!
07!
02!
0o
1c
14
13
02
10
1,
16
0/
0D!
17!
0y!
0Q!
19!
1:!
1;!
#130000
0%
0W
0X
0E
#140000
1%
1W
1X
1E
1;"
1i
0a
0J!
1I!
1H!
1&"
0*!
0j
0h
0(!
0n
1b
0-"
1+"
1*"
1'"
0]!
0Z!
1k!
0X!
1@!
0?!
1=!
07!
0&!
1o
0Y!
0P!
0'!
0,
1+
1*
1p!
1?!
1'!
1y!
09!
0D
1B
1A
1>
1z!
0:!
0;!
#150000
0%
0W
0X
0E
#160000
1%
1W
1X
1E
0k
0i
1$"
1l
1j
1*!
0*"
1("
0'"
0A
1?
0>
#170000
0%
0W
0X
0E
#180000
1%
1W
1X
1E
18"
09"
0;"
0:"
0<"
1m
1k
1#"
0!"
0~!
1}!
0{!
0M!
0I!
0H!
1n
0l
1V
0&"
0$"
0p!
0\!
1[!
1X!
1B!
0@!
0?!
17!
12!
1&!
1}
1U
1-"
0+"
0("
04
03
12
00
0+
0*
06
1/
1q!
1g!
1D!
07!
0'!
0x!
1:!
19!
1.!
1~
1u!
1D
0B
0?
1E!
0y!
1;!
0:!
1F!
0z!
0;!
#190000
0%
0W
0X
0E
#200000
1%
1W
1X
1E
08"
1="
0m
1S
0#"
0""
0}!
1L!
1K!
1J!
1G!
0n
0V
1$"
0b
1Z
1p!
0k!
0[!
1?!
0=!
17!
0}
0c
0U
1,"
1+"
1*"
1'"
1Y!
1'!
05
02
1.
1-
1,
1)
16
0p!
1r!
1h!
0?!
1x!
1P!
1:!
09!
0.!
0~
0u!
1C
1B
1A
1>
1s!
1i!
1y!
1Q!
0:!
1z!
1Z!
#210000
0%
0W
0X
0E
#220000
1%
1W
1X
1E
18"
16"
17"
19"
1]
0S
1#"
1~!
1}!
1|!
1%"
1n
1d
0Z
0$"
0-"
0+"
0*"
1)"
0'"
1[!
0B!
1?!
07!
02!
0o
1c
13
12
11
06
0r!
0h!
0D!
17!
0y!
0Q!
19!
0D
0B
0A
1@
0>
0s!
0i!
0E!
0z!
0Z!
1:!
0F!
1;!
#230000
0%
0W
0X
0E
#240000
1%
1W
1X
1E
08"
06"
07"
09"
0="
1;"
1e
0]
0#"
0~!
0}!
0|!
1M!
0L!
1&"
1(!
1f
0d
0n
1b
0,"
0)"
1("
1]!
1\!
0[!
1Z!
1k!
0X!
1@!
0?!
1=!
07!
0&!
1o
0Y!
0P!
0'!
03
02
01
0.
16
0/
0q!
0g!
1r!
1h!
1p!
1A!
1?!
1'!
1y!
09!
0Z!
0C
0@
1?
0r!
0h!
1s!
1i!
1q!
1E!
0:!
0s!
0i!
1r!
1F!
0;!
1s!
#250000
0%
0W
0X
0E
#260000
1%
1W
1X
1E
16"
1="
1<"
1g
0e
1#"
0M!
1L!
0G!
1$"
1n
0f
1^
0&"
1,"
1+"
0("
0p!
1X!
1B!
0@!
0?!
17!
12!
1&!
1}
1U
1.
0)
06
1/
0q!
1D!
0A!
07!
0'!
0x!
1:!
19!
1.!
1~
1u!
1C
1B
0?
0r!
0E!
0y!
1;!
0:!
1z!
0s!
0F!
0;!
#270000
0%
0W
0X
0E
#280000
1%
1W
1X
1E
18"
06"
0="
0;"
0<"
0g
1_
1""
1}!
0L!
0K!
0J!
0%"
0$"
0n
0^
0b
1`
1-"
0,"
0+"
1p!
0k!
1?!
0=!
17!
0}
0c
0U
1Y!
1'!
15
12
0.
0-
0,
1q!
0p!
0?!
1x!
1P!
1:!
09!
0.!
0~
0u!
1Z!
1D
0C
0B
1r!
0q!
1y!
1Q!
0:!
0z!
1s!
0r!
0s!
#290000
0%
0W
0X
0E
#300000
1%
1W
1X
1E
08"
19"
1:"
1<"
1a
0_
0#"
1!"
1~!
0}!
1{!
1M!
1J!
1n
1h
0`
0B!
1?!
07!
02!
0o
1c
14
13
02
10
1,
16
0/
0D!
17!
0y!
0Q!
19!
1:!
1;!
#310000
0%
0W
0X
0E
#320000
1%
1W
1X
1E
1;"
1i
0a
0J!
1I!
1H!
1&"
0*!
0j
0h
0(!
0n
1b
0-"
1+"
1*"
1'"
0]!
0Z!
1k!
0X!
1@!
0?!
1=!
07!
0&!
1o
0Y!
0P!
0'!
0,
1+
1*
1p!
1?!
1'!
1y!
09!
0D
1B
1A
1>
1z!
0:!
0;!
#330000
0%
0W
0X
0E
#340000
1%
1W
1X
1E
0k
0i
1$"
1l
1j
1*!
0*"
1("
0'"
0A
1?
0>
#350000
0%
0W
0X
0E
#360000
1%
1W
1X
1E
18"
09"
0;"
0:"
0<"
1m
1k
1#"
0!"
0~!
1}!
0{!
0M!
0I!
0H!
1n
0l
1V
0&"
0$"
0p!
0\!
1[!
1X!
1B!
0@!
0?!
17!
12!
1&!
1}
1U
1-"
0+"
0("
04
03
12
00
0+
0*
06
1/
1q!
1g!
1D!
07!
0'!
0x!
1:!
19!
1.!
1~
1u!
1D
0B
0?
1E!
0y!
1;!
0:!
1F!
0z!
0;!
#370000
0%
0W
0X
0E
#380000
1%
1W
1X
1E
08"
1="
0m
1S
0#"
0""
0}!
1L!
1K!
1J!
1G!
0n
0V
1$"
0b
1Z
1p!
0k!
0[!
1?!
0=!
17!
0}
0c
0U
1,"
1+"
1*"
1'"
1Y!
1'!
05
02
1.
1-
1,
1)
16
0p!
1r!
1h!
0?!
1x!
1P!
1:!
09!
0.!
0~
0u!
1C
1B
1A
1>
1s!
1i!
1y!
1Q!
0:!
1z!
1Z!
#390000
0%
0W
0X
0E
#400000
1%
1W
1X
1E
18"
16"
17"
19"
1]
0S
1#"
1~!
1}!
1|!
1%"
1n
1d
0Z
0$"
0-"
0+"
0*"
1)"
0'"
1[!
0B!
1?!
07!
02!
0o
1c
13
12
11
06
0r!
0h!
0D!
17!
0y!
0Q!
19!
0D
0B
0A
1@
0>
0s!
0i!
0E!
0z!
0Z!
1:!
0F!
1;!
#410000
0%
0W
0X
0E
#420000
1%
1W
1X
1E
08"
06"
07"
09"
0="
1;"
1e
0]
0#"
0~!
0}!
0|!
1M!
0L!
1&"
1(!
1f
0d
0n
1b
0,"
0)"
1("
1]!
1\!
0[!
1Z!
1k!
0X!
1@!
0?!
1=!
07!
0&!
1o
0Y!
0P!
0'!
03
02
01
0.
16
0/
0q!
0g!
1r!
1h!
1p!
1A!
1?!
1'!
1y!
09!
0Z!
0C
0@
1?
0r!
0h!
1s!
1i!
1q!
1E!
0:!
0s!
0i!
1r!
1F!
0;!
1s!
#430000
0%
0W
0X
0E
