FSM/simulation/qsim/lab5.msim.vcd
$comment
	File created using the following command:
		vcd file lab5.msim.vcd -direction
$end
$date
	Sat Nov 23 04:37:51 2024
$end
$version
	ModelSim Version 10.1d
$end
$timescale
	1ps
$end
$scope module lab5_vlg_vec_tst $end
$var reg 1 ! clk $end
$var reg 1 " data_in $end
$var reg 1 # reset $end
$var wire 1 $ current_state [2] $end
$var wire 1 % current_state [1] $end
$var wire 1 & current_state [0] $end
$var wire 1 ' student_id [3] $end
$var wire 1 ( student_id [2] $end
$var wire 1 ) student_id [1] $end
$var wire 1 * student_id [0] $end
$var wire 1 + sampler $end
$scope module i1 $end
$var wire 1 , gnd $end
$var wire 1 - vcc $end
$var wire 1 . unknown $end
$var tri1 1 / devclrn $end
$var tri1 1 0 devpor $end
$var tri1 1 1 devoe $end
$var wire 1 2 data_in~combout $end
$var wire 1 3 clk~combout $end
$var wire 1 4 clk~clkctrl_outclk $end
$var wire 1 5 Selector0~0_combout $end
$var wire 1 6 reset~combout $end
$var wire 1 7 reset~clkctrl_outclk $end
$var wire 1 8 yfsm.s0~regout $end
$var wire 1 9 Selector2~0_combout $end
$var wire 1 : yfsm.s2~regout $end
$var wire 1 ; Selector6~0_combout $end
$var wire 1 < yfsm.s6~regout $end
$var wire 1 = Selector3~0_combout $end
$var wire 1 > yfsm.s3~regout $end
$var wire 1 ? Selector7~0_combout $end
$var wire 1 @ yfsm.s7~regout $end
$var wire 1 A Selector1~0_combout $end
$var wire 1 B yfsm.s1~regout $end
$var wire 1 C Selector5~0_combout $end
$var wire 1 D yfsm.s5~regout $end
$var wire 1 E Selector4~0_combout $end
$var wire 1 F yfsm.s4~regout $end
$var wire 1 G student_id~0_combout $end
$var wire 1 H WideOr3~0_combout $end
$var wire 1 I student_id~1_combout $end
$var wire 1 J WideOr2~combout $end
$var wire 1 K WideOr1~combout $end
$var wire 1 L WideOr0~0_combout $end
$upscope $end
$upscope $end
$enddefinitions $end
#0
$dumpvars
0!
1"
0#
0&
0%
0$
0*
0)
0(
0'
x+
0,
1-
x.
1/
10
11
12
03
04
15
06
07
08
19
0:
0;
0<
0=
0>
0?
0@
0A
0B
0C
0D
0E
0F
0G
0H
0I
1J
1K
1L
$end
#10000
1!
13
14
0+
1:
18
1H
1;
09
0K
1)
1%
#20000
0!
03
04
1+
#30000
1!
13
14
0+
1<
0:
1=
0;
0L
0H
0)
1$
#40000
0!
03
04
1+
#50000
1!
13
14
0+
1>
0<
1L
1I
1H
1?
0=
0J
1(
1)
0$
1&
#60000
0!
03
04
1+
#70000
1!
13
14
0+
1@
0>
1A
0?
0L
0H
0)
1$
#80000
0!
03
04
1+
#90000
1!
13
14
0+
1B
0@
1L
1K
1G
1C
0A
0I
1*
0(
0$
0%
#100000
0!
03
04
1+
#110000
1!
13
14
0+
1D
0B
1E
0C
0L
0G
0*
1$
#120000
0!
03
04
1+
#130000
1!
13
14
0+
1F
0D
1J
1H
1G
0E
05
1)
1*
0&
#140000
0!
03
04
1+
