ALU3/simulation/qsim/ALU3.msim.vcd
$comment
	File created using the following command:
		vcd file ALU3.msim.vcd -direction
$end
$date
	Thu Nov 28 04:58:07 2024
$end
$version
	ModelSim Version 10.1d
$end
$timescale
	1ps
$end
$scope module ALU3_vlg_vec_tst $end
$var reg 8 ! A [7:0] $end
$var reg 8 " B [7:0] $end
$var reg 1 # clock $end
$var reg 16 $ opcode [15:0] $end
$var reg 1 % reset $end
$var reg 4 & student_id [3:0] $end
$var wire 1 ' neg $end
$var wire 1 ( Result [3] $end
$var wire 1 ) Result [2] $end
$var wire 1 * Result [1] $end
$var wire 1 + Result [0] $end
$var wire 1 , sampler $end
$scope module i1 $end
$var wire 1 - gnd $end
$var wire 1 . vcc $end
$var wire 1 / unknown $end
$var tri1 1 0 devclrn $end
$var tri1 1 1 devpor $end
$var tri1 1 2 devoe $end
$var wire 1 3 LessThan1~0_combout $end
$var wire 1 4 LessThan1~1_combout $end
$var wire 1 5 LessThan1~2_combout $end
$var wire 1 6 WideNor0~2_combout $end
$var wire 1 7 WideNor0~6_combout $end
$var wire 1 8 clock~combout $end
$var wire 1 9 clock~clkctrl_outclk $end
$var wire 1 : Result~0_combout $end
$var wire 1 ; Result~1_combout $end
$var wire 1 < Result~2_combout $end
$var wire 1 = WideNor0~1_combout $end
$var wire 1 > WideNor0~5_combout $end
$var wire 1 ? WideNor0~0_combout $end
$var wire 1 @ WideNor0~7_combout $end
$var wire 1 A WideNor0~3_combout $end
$var wire 1 B WideNor0~4_combout $end
$var wire 1 C Result~3_combout $end
$var wire 1 D reset~combout $end
$var wire 1 E reset~clkctrl_outclk $end
$var wire 1 F Result[0]~reg0_regout $end
$var wire 1 G Result[1]~reg0_regout $end
$var wire 1 H Result[2]~reg0_regout $end
$var wire 1 I Result[3]~reg0_regout $end
$var wire 1 J opcode~combout [15] $end
$var wire 1 K opcode~combout [14] $end
$var wire 1 L opcode~combout [13] $end
$var wire 1 M opcode~combout [12] $end
$var wire 1 N opcode~combout [11] $end
$var wire 1 O opcode~combout [10] $end
$var wire 1 P opcode~combout [9] $end
$var wire 1 Q opcode~combout [8] $end
$var wire 1 R opcode~combout [7] $end
$var wire 1 S opcode~combout [6] $end
$var wire 1 T opcode~combout [5] $end
$var wire 1 U opcode~combout [4] $end
$var wire 1 V opcode~combout [3] $end
$var wire 1 W opcode~combout [2] $end
$var wire 1 X opcode~combout [1] $end
$var wire 1 Y opcode~combout [0] $end
$var wire 1 Z student_id~combout [3] $end
$var wire 1 [ student_id~combout [2] $end
$var wire 1 \ student_id~combout [1] $end
$var wire 1 ] student_id~combout [0] $end
$var wire 1 ^ B~combout [7] $end
$var wire 1 _ B~combout [6] $end
$var wire 1 ` B~combout [5] $end
$var wire 1 a B~combout [4] $end
$var wire 1 b B~combout [3] $end
$var wire 1 c B~combout [2] $end
$var wire 1 d B~combout [1] $end
$var wire 1 e B~combout [0] $end
$upscope $end
$upscope $end
$enddefinitions $end
#0
$dumpvars
b11110 !
b100 "
1#
b1000000000000000 $
0%
b101 &
0'
0+
0*
0)
0(
x,
0-
1.
x/
10
11
12
13
14
15
06
17
18
19
1:
1;
1<
0=
0>
1?
0@
1A
0B
0C
0D
0E
0F
0G
0H
0I
0Y
0X
0W
0V
0U
0T
0S
0R
0Q
0P
0O
0N
0M
0L
0K
1J
1]
0\
1[
0Z
0e
0d
1c
0b
0a
0`
0_
0^
$end
#10000
0#
08
09
0,
#20000
b1 &
b0 &
b0 $
b100000000000000 $
1#
1K
0J
0]
0[
18
19
1,
0:
03
04
0;
05
0<
#30000
0#
08
09
0,
#40000
b110000000000000 $
b1 &
b10000000000000 $
1#
1]
1L
0K
18
19
1,
1:
13
1;
1<
#50000
0#
08
09
0,
#60000
b11 &
b11000000000000 $
b1000000000000 $
b10 &
1#
1M
0L
0]
1\
18
19
1,
#70000
0#
08
09
0,
#80000
b1100000000000 $
b110 &
b100000000000 $
1#
1[
1N
0M
18
19
1,
14
0?
1=
15
#90000
0#
08
09
0,
#100000
b110000000000 $
b111 &
b10000000000 $
b11 &
1#
1]
0[
1O
0N
18
19
1,
04
05
#110000
0#
08
09
0,
#120000
b11000000000 $
b1 &
b1000000000 $
b0 &
1#
0]
0\
1P
0O
18
19
1,
0:
03
0;
0<
#130000
0#
08
09
0,
#140000
b1100000000 $
b100000000 $
1#
1Q
0P
18
19
1,
#150000
0#
08
09
0,
#160000
b110000000 $
b100 &
b10000000 $
1#
1[
1R
0Q
18
19
1,
1;
07
16
1?
1<
1B
#170000
0#
08
09
0,
#180000
b11000000 $
b1000000 $
b0 &
1#
0[
1S
0R
18
19
1,
0;
0<
#190000
0#
08
09
0,
#200000
b1100000 $
b100000 $
1#
1T
0S
18
19
1,
#210000
0#
08
09
0,
#220000
b110000 $
b10000 $
1#
1U
0T
18
19
1,
0A
1>
17
06
0B
1@
#230000
0#
08
09
0,
#240000
b11000 $
b1000 $
1#
1V
0U
18
19
1,
#250000
0#
08
09
0,
#260000
b1100 $
b100 $
1#
1W
0V
18
19
1,
#270000
0#
08
09
0,
#280000
b110 $
b10 $
1#
1X
0W
18
19
1,
#290000
0#
08
09
0,
#300000
b11 $
b1 $
1#
1Y
0X
18
19
1,
07
16
1A
0>
0@
1B
