ALU3Circuit/simulation/qsim/Circuit3.msim.vcd
$comment
	File created using the following command:
		vcd file Circuit3.msim.vcd -direction
$end
$date
	Thu Nov 28 04:30:04 2024
$end
$version
	ModelSim Version 10.1d
$end
$timescale
	1ps
$end
$scope module Circuit3_vlg_vec_tst $end
$var reg 8 ! A [7:0] $end
$var reg 1 " A_Reset $end
$var reg 8 # B [7:0] $end
$var reg 1 $ B_Reset $end
$var reg 1 % Clock $end
$var reg 1 & data_inFSM $end
$var reg 1 ' Enable_Decoder $end
$var reg 1 ( ResetFSM $end
$var wire 1 ) display [0] $end
$var wire 1 * display [1] $end
$var wire 1 + display [2] $end
$var wire 1 , display [3] $end
$var wire 1 - display [4] $end
$var wire 1 . display [5] $end
$var wire 1 / display [6] $end
$var wire 1 0 StudentID_Display [0] $end
$var wire 1 1 StudentID_Display [1] $end
$var wire 1 2 StudentID_Display [2] $end
$var wire 1 3 StudentID_Display [3] $end
$var wire 1 4 StudentID_Display [4] $end
$var wire 1 5 StudentID_Display [5] $end
$var wire 1 6 StudentID_Display [6] $end
$var wire 1 7 sampler $end
$scope module i1 $end
$var wire 1 8 gnd $end
$var wire 1 9 vcc $end
$var wire 1 : unknown $end
$var tri1 1 ; devclrn $end
$var tri1 1 < devpor $end
$var tri1 1 = devoe $end
$var wire 1 > inst2|yfsm.s2~regout $end
$var wire 1 ? inst1|Result[3]~3_combout $end
$var wire 1 @ inst1|Result[3]~7_combout $end
$var wire 1 A inst1|Result[3]~9_combout $end
$var wire 1 B inst1|Result[3]~12_combout $end
$var wire 1 C inst2|yfsm.s7~regout $end
$var wire 1 D inst2|yfsm.s1~regout $end
$var wire 1 E inst2|Selector2~0_combout $end
$var wire 1 F inst2|yfsm.s6~regout $end
$var wire 1 G inst2|Selector7~0_combout $end
$var wire 1 H inst2|Selector1~0_combout $end
$var wire 1 I inst2|Selector6~0_combout $end
$var wire 1 J Clock~combout $end
$var wire 1 K Clock~clkctrl_outclk $end
$var wire 1 L inst5|Q[7]~feeder_combout $end
$var wire 1 M B_Reset~combout $end
$var wire 1 N B_Reset~clkctrl_outclk $end
$var wire 1 O inst5|Q[2]~feeder_combout $end
$var wire 1 P inst1|Result[3]~11_combout $end
$var wire 1 Q data_inFSM~combout $end
$var wire 1 R inst2|Selector8~0_combout $end
$var wire 1 S inst2|yfsm.s8~regout $end
$var wire 1 T inst2|Selector0~0_combout $end
$var wire 1 U inst2|yfsm.s0~regout $end
$var wire 1 V inst2|Selector3~0_combout $end
$var wire 1 W inst2|yfsm.s3~regout $end
$var wire 1 X inst2|Selector4~0_combout $end
$var wire 1 Y inst2|yfsm.s4~regout $end
$var wire 1 Z inst1|Result[3]~0_combout $end
$var wire 1 [ inst1|Result[3]~1_combout $end
$var wire 1 \ inst5|Q[6]~feeder_combout $end
$var wire 1 ] inst1|LessThan0~0_combout $end
$var wire 1 ^ inst1|Result[3]~2_combout $end
$var wire 1 _ inst2|Selector5~0_combout $end
$var wire 1 ` inst2|yfsm.s5~regout $end
$var wire 1 a inst2|WideOr4~combout $end
$var wire 1 b inst2|WideOr5~0_combout $end
$var wire 1 c inst1|Result[3]~4_combout $end
$var wire 1 d inst1|Result[3]~5_combout $end
$var wire 1 e Enable_Decoder~combout $end
$var wire 1 f inst1|Result[3]~6_combout $end
$var wire 1 g inst1|LessThan1~0_combout $end
$var wire 1 h inst1|Result[3]~8_combout $end
$var wire 1 i inst1|Result[3]~10_combout $end
$var wire 1 j inst1|Result[3]~13_combout $end
$var wire 1 k inst2|WideOr3~combout $end
$var wire 1 l inst3|Mux0~0_combout $end
$var wire 1 m inst3|Mux1~0_combout $end
$var wire 1 n inst3|Mux2~0_combout $end
$var wire 1 o inst3|Mux3~0_combout $end
$var wire 1 p inst3|Mux4~0_combout $end
$var wire 1 q inst3|Mux5~0_combout $end
$var wire 1 r inst3|Mux6~0_combout $end
$var wire 1 s inst5|Q [7] $end
$var wire 1 t inst5|Q [6] $end
$var wire 1 u inst5|Q [5] $end
$var wire 1 v inst5|Q [4] $end
$var wire 1 w inst5|Q [3] $end
$var wire 1 x inst5|Q [2] $end
$var wire 1 y inst5|Q [1] $end
$var wire 1 z inst5|Q [0] $end
$var wire 1 { inst1|Result [3] $end
$var wire 1 | inst1|Result [2] $end
$var wire 1 } inst1|Result [1] $end
$var wire 1 ~ inst1|Result [0] $end
$var wire 1 !! B~combout [7] $end
$var wire 1 "! B~combout [6] $end
$var wire 1 #! B~combout [5] $end
$var wire 1 $! B~combout [4] $end
$var wire 1 %! B~combout [3] $end
$var wire 1 &! B~combout [2] $end
$var wire 1 '! B~combout [1] $end
$var wire 1 (! B~combout [0] $end
$upscope $end
$upscope $end
$enddefinitions $end
#0
$dumpvars
b11110 !
0"
b100 #
0$
0%
1&
1'
0(
0/
1.
0-
1,
0+
1*
1)
06
05
14
03
02
11
00
x7
08
19
x:
1;
1<
1=
0>
1?
1@
0A
1B
0C
0D
0E
0F
0G
1H
0I
0J
0K
0L
0M
0N
1O
1P
1Q
0R
0S
1T
0U
0V
0W
0X
0Y
0Z
0[
0\
1]
0^
0_
0`
0a
1b
1c
0d
1e
0f
1g
0h
0i
1j
1k
0l
1m
0n
0o
1p
0q
0r
0z
0y
0x
0w
0v
0u
0t
0s
z~
z}
z|
0{
0(!
0'!
1&!
0%!
0$!
0#!
0"!
0!!
$end
#10000
1%
1J
1K
07
1{
1U
1x
1D
0k
0b
0]
0H
0B
1E
1-
0*
0,
0.
1r
0p
0m
0c
0?
1^
0j
16
04
01
#20000
0%
0J
0K
17
#30000
1%
1J
1K
07
0{
0D
1>
0E
1b
1V
0-
1*
1,
1.
1q
1p
1o
1l
1c
1?
1d
15
14
13
10
1j
#40000
0%
0J
0K
17
#50000
1%
1J
1K
07
1{
1W
0>
1a
1X
0V
1A
0b
1-
0*
0,
0.
0r
0p
0o
1n
0l
0c
0?
1i
0d
06
04
03
12
00
#60000
0%
0J
0K
17
#70000
1%
1J
1K
07
1Y
0W
1k
0g
1_
1]
1Z
0X
1B
0q
0n
1m
1h
0^
1[
05
02
11
#80000
0%
0J
0K
17
#90000
1%
1J
1K
07
1`
0Y
1b
0_
1I
0k
1g
0]
0Z
0B
1q
1p
0m
0h
1^
0[
15
14
01
#100000
0%
0J
0K
17
#110000
1%
1J
1K
07
0`
1F
0b
0a
0I
0A
1G
1r
0q
0p
0i
0j
16
05
04
#120000
0%
0J
0K
17
#130000
1%
1J
1K
07
0{
0F
1C
0G
1R
0-
1*
1,
1.
#140000
0%
0J
0K
17
#150000
1%
1J
1K
07
1S
0C
1k
0g
0^
1]
0T
0R
0@
0r
1p
1o
1l
06
14
13
10
#160000
0%
0J
0K
17
#170000
1%
1J
1K
07
0U
0S
1b
1Z
1T
1H
1B
1@
0o
1m
0l
1c
1?
1[
1j
1d
03
11
00
#180000
0%
0J
0K
17
#190000
1%
1J
1K
07
1{
1U
1D
0k
1g
0b
0]
0Z
0H
0B
1E
1-
0*
0,
0.
1r
0p
0m
0c
0?
1^
0[
0d
16
04
01
0j
#200000
0%
0J
0K
17
#210000
1%
1J
1K
07
0{
0D
1>
0E
1b
1V
0-
1*
1,
1.
1q
1p
1o
1l
1c
1?
1d
15
14
13
10
1j
#220000
0%
0J
0K
17
#230000
1%
1J
1K
07
1{
1W
0>
1a
1X
0V
1A
0b
1-
0*
0,
0.
0r
0p
0o
1n
0l
0c
0?
1i
0d
06
04
03
12
00
#240000
0%
0J
0K
17
#250000
1%
1J
1K
07
1Y
0W
1k
0g
1_
1]
1Z
0X
1B
0q
0n
1m
1h
0^
1[
05
02
11
#260000
0%
0J
0K
17
#270000
1%
1J
1K
07
1`
0Y
1b
0_
1I
0k
1g
0]
0Z
0B
1q
1p
0m
0h
1^
0[
15
14
01
#280000
0%
0J
0K
17
#290000
1%
1J
1K
07
0`
1F
0b
0a
0I
0A
1G
1r
0q
0p
0i
0j
16
05
04
#300000
0%
0J
0K
17
#310000
1%
1J
1K
07
0{
0F
1C
0G
1R
0-
1*
1,
1.
#320000
0%
0J
0K
17
#330000
1%
1J
1K
07
1S
0C
1k
0g
0^
1]
0T
0R
0@
0r
1p
1o
1l
06
14
13
10
#340000
0%
0J
0K
17
#350000
1%
1J
1K
07
0U
0S
1b
1Z
1T
1H
1B
1@
0o
1m
0l
1c
1?
1[
1j
1d
03
11
00
#360000
0%
0J
0K
17
